{"endpoint": "/warehouse/wms/stock/overview/", "kind": "object", "count": 1, "data": {"summary": {"total_items": 951, "total_on_hand": 358728.9, "total_committed": 1455064.0, "total_available": -1096335.1, "total_value": 74779097.55}, "items": [{"item_code": "FG0000004", "item_name": "COLD PRESS 5 LTR 4 PCS", "item_group": "FINISHED", "uom": "PCS", "warehouse_code": "BH-FG", "on_hand": 4.0, "committed": 220.0, "on_order": 240.0, "available": -216.0, "avg_price": 850.0, "stock_value": 3400.0, "min_level": 0.0, "max_level": 0.0, "last_purchase_price": 850.0, "stock_status": "NORMAL"}, {"item_code": "FG0000005", "item_name": "EXTRA LIGHT OLIVE 1 LTR 16 PCS", "item_group": "FINISHED", "uom": "PCS", "warehouse_code": "BH-FG", "on_hand": 0.0, "committed": 2400.0, "on_order": 400.0, "available": -2400.0, "avg_price": 200.0, "stock_value": 0.0, "min_level": 0.0, "max_level": 0.0, "last_purchase_price": 200.0, "stock_status": "ZERO"}, {"item_code": "FG0000008", "item_name": "POMACE OLIVE 5 LTR TIN 4 PCS", "item_group": "FINISHED", "uom": "PCS", "warehouse_code": "BH-FG", "on_hand": 8.0, "committed": 300.0, "on_order": 620.0, "available": -292.0, "avg_price": 1250.0, "stock_value": 10000.0, "min_level": 0.0, "max_level": 0.0, "last_purchase_price": 1250.0, "stock_status": "NORMAL"}, {"item_code": "FG0000009", "item_name": "EXTRA LIGHT OLIVE 5 LTR TIN 4 PCS", "item_group": "FINISHED", "uom": "PCS", "warehouse_code": "BH-FG", "on_hand": 0.0, "committed": 176.0, "on_order": 0.0, "available": -176.0, "avg_price": 1625.0, "stock_value": 0.0, "min_level": 0.0, "max_level": 0.0, "last_purchase_price": 1625.0, "stock_status": "ZERO"}, {"item_code": "FG0000011", "item_name": "MUSTARD KACCHI GHANI 5 LTR 4 PCS", "item_group": "FINISHED", "uom": "PCS", "warehouse_code": "BH-FG", "on_hand": 0.0, "committed": 5191.0, "on_order": 0.0, "available": -5191.0, "avg_price": 750.0, "stock_value": 0.0, "min_level": 0.0, "max_level": 0.0, "last_purchase_price": 750.0, "stock_status": "ZERO"}, {"item_code": "FG0000018", "item_name": "COLD PRESS 5 LTR + COLD PRESS 1 LTR 3 PCS SHRINKED", "item_group": "FINISHED", "uom": "PCS", "warehouse_code": "BH-FG", "on_hand": 0.0, "committed": 426.0, "on_order": 30.0, "available": -426.0, "avg_price": 1020.0, "stock_value": 0.0, "min_level": 0.0, "max_level": 0.0, "last_purchase_price": 1020.0, "stock_status": "ZERO"}, {"item_code": "FG0000028", "item_name": "POMACE OLIVE 1 LTR 16 PCS", "item_group": "FINISHED", "uom": "PCS", "warehouse_code": "BH-FG", "on_hand": 0.0, "committed": 6160.0, "on_order": 4480.0, "available": -6160.0, "avg_price": 250.0, "stock_value": 0.0, "min_level": 0.0, "max_level": 0.0, "last_purchase_price": 250.0, "stock_status": "ZERO"}, {"item_code": "FG0000030", "item_name": "MUSTARD KACHI GHANI 1 LTR 20 PCS", "item_group": "FINISHED", "uom": "PCS", "warehouse_code": "BH-FG", "on_hand": 0.0, "committed": 2189.0, "on_order": 815.0, "available": -2189.0, "avg_price": 150.0, "stock_value": 0.0, "min_level": 0.0, "max_level": 0.0, "last_purchase_price": 150.0, "stock_status": "ZERO"}, {"item_code": "FG0000032", "item_name": "COLD PRESS 1 LTR 20 PCS", "item_group": "FINISHED", "uom": "PCS", "warehouse_code": "BH-FG", "on_hand": 60.0, "committed": 5600.0, "on_order": 3500.0, "available": -5540.0, "avg_price": 170.0, "stock_value": 10200.0, "min_level": 0.0, "max_level": 0.0, "last_purchase_price": 170.0, "stock_status": "NORMAL"}, {"item_code": "FG0000042", "item_name": "EXTRA VIRGIN OLIVE 1 LTR 16 PCS", "item_group": "FINISHED", "uom": "PCS", "warehouse_code": "BH-FG", "on_hand": 0.0, "committed": 0.0, "on_order": 400.0, "available": 0.0, "avg_price": 350.0, "stock_value": 0.0, "min_level": 0.0, "max_level": 0.0, "last_purchase_price": 350.0, "stock_status": "ZERO"}, {"item_code": "FG0000053", "item_name": "COLD PRESS SUNFLOWER 5 LTR 4 PCS", "item_group": "FINISHED", "uom": "PCS", "warehouse_code": "BH-FG", "on_hand": 0.0, "committed": 3156.0, "on_order": 120.0, "available": -3156.0, "avg_price": 750.0, "stock_value": 0.0, "min_level": 0.0, "max_level": 0.0, "last_purchase_price": 750.0, "stock_status": "ZERO"}, {"item_code": "FG0000064", "item_name": "EXTRA LIGHT OIVE 2 LTR 10 PCS HANDLE", "item_group": "FINISHED", "uom": "PCS", "warehouse_code": "BH-FG", "on_hand": 0.0, "committed": 620.0, "on_order": 1150.0, "available": -620.0, "avg_price": 650.0, "stock_value": 0.0, "min_level": 0.0, "max_level": 0.0, "last_purchase_price": 650.0, "stock_status": "ZERO"}, {"item_code": "FG0000074", "item_name": "EXTRA VIRGIN OLIVE 5 LTR TIN 4 PCS IMPORTED", "item_group": "FINISHED", "uom": "PCS", "warehouse_code": "BH-FG", "on_hand": 0.0, "committed": 128.0, "on_order": 0.0, "available": -128.0, "avg_price": 1750.0, "stock_value": 0.0, "min_level": 0.0, "max_level": 0.0, "last_purchase_price": 1750.0, "stock_status": "ZERO"}, {"item_code": "FG0000081", "item_name": "COLD PRESS SUNFLOWER 1 LTR 20 PCS", "item_group": "FINISHED", "uom": "PCS", "warehouse_code": "BH-FG", "on_hand": 0.0, "committed": 13540.0, "on_order": 3500.0, "available": -13540.0, "avg_price": 150.0, "stock_value": 0.0, "min_level": 0.0, "max_level": 0.0, "last_purchase_price": 150.0, "stock_status": "ZERO"}, {"item_code": "FG0000088", "item_name": "COLD PRESS 1 LTR +1 LTR COMBO 10 SETS PLAIN", "item_group": "FINISHED", "uom": "SET", "warehouse_code": "BH-FG", "on_hand": 0.0, "committed": 250.0, "on_order": 900.0, "available": -250.0, "avg_price": 340.0, "stock_value": 0.0, "min_level": 0.0, "max_level": 0.0, "last_purchase_price": 340.0, "stock_status": "ZERO"}, {"item_code": "FG0000112", "item_name": "EXTRA VIRGIN OLIVE 250 MLS 4 PCS", "item_group": "FINISHED", "uom": "PCS", "warehouse_code": "BH-FG", "on_hand": 0.0, "committed": 1500.0, "on_order": 0.0, "available": -1500.0, "avg_price": 87.5, "stock_value": 0.0, "min_level": 0.0, "max_level": 0.0, "last_purchase_price": 87.5, "stock_status": "ZERO"}, {"item_code": "FG0000114", "item_name": "POMACE OLIVE 2 LTR 10 PCS HANDLE", "item_group": "FINISHED", "uom": "PCS", "warehouse_code": "BH-FG", "on_hand": 0.0, "committed": 1832.0, "on_order": 0.0, "available": -1832.0, "avg_price": 538.1, "stock_value": 0.0, "min_level": 0.0, "max_level": 0.0, "last_purchase_price": 538.095, "stock_status": "ZERO"}, {"item_code": "FG0000128", "item_name": "JIVO GOLD 5 LTR 4 PCS", "item_group": "FINISHED", "uom": "PCS", "warehouse_code": "BH-FG", "on_hand": 0.0, "committed": 368.0, "on_order": 28.0, "available": -368.0, "avg_price": 750.0, "stock_value": 0.0, "min_level": 0.0, "max_level": 0.0, "last_purchase_price": 750.0, "stock_status": "ZERO"}, {"item_code": "FG0000142", "item_name": "COLD PRESS GROUNDNUT OIL 1 LTR 16 PCS", "item_group": "FINISHED", "uom": "PCS", "warehouse_code": "BH-FG", "on_hand": 0.0, "committed": 20940.0, "on_order": 20400.0, "available": -20940.0, "avg_price": 170.0, "stock_value": 0.0, "min_level": 0.0, "max_level": 0.0, "last_purchase_price": 170.0, "stock_status": "ZERO"}, {"item_code": "FG0000143", "item_name": "COLD PRESS GROUNDNUT OIL 5 LTR 4 PCS", "item_group": "FINISHED", "uom": "PCS", "warehouse_code": "BH-FG", "on_hand": 0.0, "committed": 1840.0, "on_order": 300.0, "available": -1840.0, "avg_price": 850.0, "stock_value": 0.0, "min_level": 0.0, "max_level": 0.0, "last_purchase_price": 850.0, "stock_status": "ZERO"}, {"item_code": "FG0000149", "item_name": "JIVO GOLD 1 LTR 20 PCS", "item_group": "FINISHED", "uom": "PCS", "warehouse_code": "BH-FG", "on_hand": 0.0, "committed": 27390.0, "on_order": 0.0, "available": -27390.0, "avg_price": 141.19, "stock_value": 0.0, "min_level": 0.0, "max_level": 0.0, "last_purchase_price": 141.1905, "stock_status": "ZERO"}, {"item_code": "FG0000150", "item_name": "SANO POMACE OLIVE 1 LTR 16 PCS", "item_group": "FINISHED", "uom": "PCS", "warehouse_code": "BH-FG", "on_hand": 0.0, "committed": 800.0, "on_order": 16280.0, "available": -800.0, "avg_price": 250.0, "stock_value": 0.0, "min_level": 0.0, "max_level": 0.0, "last_purchase_price": 250.0, "stock_status": "ZERO"}, {"item_code": "FG0000151", "item_name": "SANO POMACE OLIVE 5 LTR TIN 4 PCS", "item_group": "FINISHED", "uom": "PCS", "warehouse_code": "BH-FG", "on_hand": 0.0, "committed": 300.0, "on_order": 100.0, "available": -300.0, "avg_price": 1195.24, "stock_value": 0.0, "min_level": 0.0, "max_level": 0.0, "last_purchase_price": 1195.24, "stock_status": "ZERO"}, {"item_code": "FG0000192", "item_name": "SOYABEAN OIL 5 LTR 4 PCS", "item_group": "FINISHED", "uom": "PCS", "warehouse_code": "BH-FG", "on_hand": 0.0, "committed": 1100.0, "on_order": 0.0, "available": -1100.0, "avg_price": 750.0, "stock_value": 0.0, "min_level": 0.0, "max_level": 0.0, "last_purchase_price": 750.0, "stock_status": "ZERO"}, {"item_code": "FG0000193", "item_name": "SOYABEAN OIL 1 LTR 20 PCS", "item_group": "FINISHED", "uom": "PCS", "warehouse_code": "BH-FG", "on_hand": 0.0, "committed": 3700.0, "on_order": 2500.0, "available": -3700.0, "avg_price": 143.81, "stock_value": 0.0, "min_level": 0.0, "max_level": 0.0, "last_purchase_price": 143.8095, "stock_status": "ZERO"}, {"item_code": "FG0000194", "item_name": "SOYABEAN OIL 1 LTR POUCH 12 PCS", "item_group": "FINISHED", "uom": "PCS", "warehouse_code": "BH-FG", "on_hand": 0.0, "committed": 24000.0, "on_order": 8004.0, "available": -24000.0, "avg_price": 150.0, "stock_value": 0.0, "min_level": 0.0, "max_level": 0.0, "last_purchase_price": 150.0, "stock_status": "ZERO"}, {"item_code": "FG0000227", "item_name": "RICE BRAN 1L 16 PCS", "item_group": "FINISHED", "uom": "PCS", "warehouse_code": "BH-FG", "on_hand": 0.0, "committed": 1904.0, "on_order": 0.0, "available": -1904.0, "avg_price": 150.0, "stock_value": 0.0, "min_level": 0.0, "max_level": 0.0, "last_purchase_price": 150.0, "stock_status": "ZERO"}, {"item_code": "FG0000228", "item_name": "SO OLIVE 1L 16 PCS", "item_group": "FINISHED", "uom": "PCS", "warehouse_code": "BH-FG", "on_hand": 0.0, "committed": 2928.0, "on_order": 320.0, "available": -2928.0, "avg_price": 170.0, "stock_value": 0.0, "min_level": 0.0, "max_level": 0.0, "last_purchase_price": 170.0, "stock_status": "ZERO"}, {"item_code": "FG0000229", "item_name": "SO OLIVE OIL 5 LTR 4 PCS", "item_group": "FINISHED", "uom": "PCS", "warehouse_code": "BH-FG", "on_hand": 0.0, "committed": 288.0, "on_order": 88.0, "available": -288.0, "avg_price": 850.0, "stock_value": 0.0, "min_level": 0.0, "max_level": 0.0, "last_purchase_price": 850.0, "stock_status": "ZERO"}, {"item_code": "FG0000230", "item_name": "RICE BRAN OIL 5 LTR 4 PCS", "item_group": "FINISHED", "uom": "PCS", "warehouse_code": "BH-FG", "on_hand": 0.0, "committed": 700.0, "on_order": 0.0, "available": -700.0, "avg_price": 750.0, "stock_value": 0.0, "min_level": 0.0, "max_level": 0.0, "last_purchase_price": 750.0, "stock_status": "ZERO"}, {"item_code": "FG0000242", "item_name": "EXTRA LIGHT 1 LTR 1 PCS + POMACE OLIVE 1 LTR 2 PCS ( 1 SET )", "item_group": "FINISHED", "uom": "PCS", "warehouse_code": "BH-FG", "on_hand": 0.0, "committed": 200.0, "on_order": 0.0, "available": -200.0, "avg_price": 921.79, "stock_value": 0.0, "min_level": 0.0, "max_level": 0.0, "last_purchase_price": 921.79, "stock_status": "ZERO"}, {"item_code": "FG0000250", "item_name": "GLASS BOTTLE 200 MLS MOJITO SUGAR FREE 12 PCS", "item_group": "FINISHED", "uom": "PCS", "warehouse_code": "BH-FG", "on_hand": 0.0, "committed": 916.0, "on_order": 240.0, "available": -916.0, "avg_price": 26.79, "stock_value": 0.0, "min_level": 0.0, "max_level": 0.0, "last_purchase_price": 26.79, "stock_status": "ZERO"}, {"item_code": "FG0000251", "item_name": "GLASS BOTTLE 200 MLS APPLE SUGAR FREE 12 PCS", "item_group": "FINISHED", "uom": "PCS", "warehouse_code": "BH-FG", "on_hand": 0.0, "committed": 512.0, "on_order": 0.0, "available": -512.0, "avg_price": 26.79, "stock_value": 0.0, "min_level": 0.0, "max_level": 0.0, "last_purchase_price": 26.79, "stock_status": "ZERO"}, {"item_code": "FG0000252", "item_name": "GLASS BOTTLE 200 MLS TONIC WATER 12 PCS", "item_group": "FINISHED", "uom": "PCS", "warehouse_code": "BH-FG", "on_hand": 0.0, "committed": 24.0, "on_order": 0.0, "available": -24.0, "avg_price": 21.43, "stock_value": 0.0, "min_level": 0.0, "max_level": 0.0, "last_purchase_price": 21.4286, "stock_status": "ZERO"}, {"item_code": "FG0000258", "item_name": "GLASS BOTTLE 200 MLS APPLE 12 PCS", "item_group": "FINISHED", "uom": "PCS", "warehouse_code": "BH-FG", "on_hand": 0.0, "committed": 324.0, "on_order": 0.0, "available": -324.0, "avg_price": 26.79, "stock_value": 0.0, "min_level": 0.0, "max_level": 0.0, "last_purchase_price": 26.79, "stock_status": "ZERO"}, {"item_code": "FG0000260", "item_name": "GLASS BOTTLE 200 MLS BLUEBERRY 12 PCS", "item_group": "FINISHED", "uom": "PCS", "warehouse_code": "BH-FG", "on_hand": 0.0, "committed": 312.0, "on_order": 0.0, "available": -312.0, "avg_price": 26.79, "stock_value": 0.0, "min_level": 0.0, "max_level": 0.0, "last_purchase_price": 26.79, "stock_status": "ZERO"}, {"item_code": "FG0000262", "item_name": "GLASS BOTTLE 200 MLS MANGO 12 PCS", "item_group": "FINISHED", "uom": "PCS", "warehouse_code": "BH-FG", "on_hand": 0.0, "committed": 312.0, "on_order": 0.0, "available": -312.0, "avg_price": 26.79, "stock_value": 0.0, "min_level": 0.0, "max_level": 0.0, "last_purchase_price": 26.79, "stock_status": "ZERO"}, {"item_code": "FG0000263", "item_name": "GLASS BOTTLE 200 MLS ROSE 12 PCS", "item_group": "FINISHED", "uom": "PCS", "warehouse_code": "BH-FG", "on_hand": 0.0, "committed": 300.0, "on_order": 0.0, "available": -300.0, "avg_price": 26.79, "stock_value": 0.0, "min_level": 0.0, "max_level": 0.0, "last_purchase_price": 26.79, "stock_status": "ZERO"}, {"item_code": "FG0000265", "item_name": "DESI GHEE 1000 MLS 12 PCS", "item_group": "FINISHED", "uom": "PCS", "warehouse_code": "BH-FG", "on_hand": 0.0, "committed": 27.0, "on_order": 0.0, "available": -27.0, "avg_price": 450.0, "stock_value": 0.0, "min_level": 0.0, "max_level": 0.0, "last_purchase_price": 450.0, "stock_status": "ZERO"}, {"item_code": "FG0000266", "item_name": "PET BOTTLE 1 LTR JIVO NATURAL MINERAL* (12 PCS)", "item_group": "FINISHED", "uom": "PCS", "warehouse_code": "BH-FG", "on_hand": 0.0, "committed": 24.0, "on_order": 240.0, "available": -24.0, "avg_price": 7.94, "stock_value": 0.0, "min_level": 0.0, "max_level": 0.0, "last_purchase_price": 7.94, "stock_status": "ZERO"}, {"item_code": "FG0000274", "item_name": "COLD PRESS SUNFLOWER 5 LTR 1 PCS ( 1 SET )", "item_group": "FINISHED", "uom": "PCS", "warehouse_code": "BH-FG", "on_hand": 0.0, "committed": 500.0, "on_order": 0.0, "available": -500.0, "avg_price": 674.52, "stock_value": 0.0, "min_level": 0.0, "max_level": 0.0, "last_purchase_price": 674.52, "stock_status": "ZERO"}, {"item_code": "FG0000276", "item_name": "GLASS BOTTLE 200 MLS GINGER ALE SUGAR FREE 12 PCS", "item_group": "FINISHED", "uom": "PCS", "warehouse_code": "BH-FG", "on_hand": 0.0, "committed": 720.0, "on_order": 0.0, "available": -720.0, "avg_price": 26.79, "stock_value": 0.0, "min_level": 0.0, "max_level": 0.0, "last_purchase_price": 26.7857, "stock_status": "ZERO"}, {"item_code": "FG0000277", "item_name": "PET BOTTLE 750 MLS SODA FLAVOUR 15 PCS (PEACH)", "item_group": "FINISHED", "uom": "PCS", "warehouse_code": "BH-FG", "on_hand": 0.0, "committed": 108.0, "on_order": 300.0, "available": -108.0, "avg_price": 0.0, "stock_value": 0.0, "min_level": 0.0, "max_level": 0.0, "last_purchase_price": 0.0, "stock_status": "ZERO"}, {"item_code": "FG0000278", "item_name": "PET BOTTLE 750 MLS SODA FLAVOUR 15 PCS (LEMON)", "item_group": "FINISHED", "uom": "PCS", "warehouse_code": "BH-FG", "on_hand": 0.0, "committed": 0.0, "on_order": 300.0, "available": 0.0, "avg_price": 0.0, "stock_value": 0.0, "min_level": 0.0, "max_level": 0.0, "last_purchase_price": 0.0, "stock_status": "ZERO"}, {"item_code": "FG0000279", "item_name": "PET BOTTLE 500 MLS MANGO 18 PCS", "item_group": "FINISHED", "uom": "PCS", "warehouse_code": "BH-FG", "on_hand": 0.0, "committed": 324.0, "on_order": 0.0, "available": -324.0, "avg_price": 35.71, "stock_value": 0.0, "min_level": 0.0, "max_level": 0.0, "last_purchase_price": 35.71, "stock_status": "ZERO"}, {"item_code": "FG0000280", "item_name": "PET BOTTLE 750 ML SODA FLAVOUR 12 PCS (LEMON)", "item_group": "FINISHED", "uom": "PCS", "warehouse_code": "BH-FG", "on_hand": 0.0, "committed": 120.0, "on_order": 0.0, "available": -120.0, "avg_price": 28.57, "stock_value": 0.0, "min_level": 0.0, "max_level": 0.0, "last_purchase_price": 28.57, "stock_status": "ZERO"}, {"item_code": "FG0000281", "item_name": "PET BOTTLE 750 ML SODA FLAVOUR 12 PCS (PEACH)", "item_group": "FINISHED", "uom": "PCS", "warehouse_code": "BH-FG", "on_hand": 0.0, "committed": 144.0, "on_order": 0.0, "available": -144.0, "avg_price": 28.57, "stock_value": 0.0, "min_level": 0.0, "max_level": 0.0, "last_purchase_price": 28.57, "stock_status": "ZERO"}, {"item_code": "FG0000302", "item_name": "MUSTARD KACHI GHANI 4 LTR 5 PCS", "item_group": "FINISHED", "uom": "PCS", "warehouse_code": "BH-FG", "on_hand": 0.0, "committed": 5620.0, "on_order": 2000.0, "available": -5620.0, "avg_price": 600.0, "stock_value": 0.0, "min_level": 0.0, "max_level": 0.0, "last_purchase_price": 600.0, "stock_status": "ZERO"}, {"item_code": "FG0000363", "item_name": "GLASS BOTTLE 200 MLS BLUEBERRY SUGAR FREE 12 PCS", "item_group": "FINISHED", "uom": "PCS", "warehouse_code": "BH-FG", "on_hand": 0.0, "committed": 0.0, "on_order": 240.0, "available": 0.0, "avg_price": 26.79, "stock_value": 0.0, "min_level": 0.0, "max_level": 0.0, "last_purchase_price": 26.79, "stock_status": "ZERO"}, {"item_code": "FG0000364", "item_name": "PET BOTTLE 750 ML FIZZ SODA 12 PCS", "item_group": "FINISHED", "uom": "PCS", "warehouse_code": "BH-FG", "on_hand": 0.0, "committed": 24.0, "on_order": 240.0, "available": -24.0, "avg_price": 0.0, "stock_value": 0.0, "min_level": 0.0, "max_level": 0.0, "last_purchase_price": 0.0, "stock_status": "ZERO"}], "pagination": {"total": 951, "page": 1, "page_size": 50, "pages": 20}}}